{
  "$schema": "http://schema.management.azure.com/schemas/2015-01-01/deploymentTemplate.json#",
  "contentVersion": "1.0.0.0",
  "parameters": {
    "projectId": {
      "type": "string",
      "metadata": {
        "description": "Project ID, to be used for billing purposes."
      }
    },
    "applicationName": {
      "type": "string",
      "metadata": {
        "description": "Application Name, to be used for billing purposes."
      }
    },
    "businessUnit": {
      "type": "string",
      "metadata": {
        "description": "Business Unit, to be used for billing purposes."
      }
    },    
    "nsgName": {
      "type": "string"
    },
    "nsgRules": {
      "type": "array",
      "defaultValue": [ ]
    }
  },
  "resources": [
    {
      "type": "Microsoft.Network/networkSecurityGroups",
      "name": "[parameters('nsgName')]",
      "apiVersion": "2015-06-15",
      "location": "[ResourceGroup().location]",
      "tags": {
        "project": "[parameters('projectId')]",
        "applicationname": "[parameters('applicationName')]",
        "businessunit": "[parameters('businessUnit')]"
      },      
      "properties": {
        "securityRules": "[parameters('nsgRules')]"
      }
    }
  ]
}